<svg width="20" height="6" viewBox="0 0 20 6" fill="none" xmlns="http://www.w3.org/2000/svg">
<path d="M16.2503 5.14296L17.7442 3.60635H0V2.39413H17.7445L16.2503 0.857038L17.0836 0L20 3.00024L17.0836 6L16.2503 5.14296Z" fill="#5C5C5C"/>
</svg>
