<svg width="20" height="20" viewBox="0 0 20 20" fill="none" xmlns="http://www.w3.org/2000/svg">
<circle cx="10.0007" cy="10" r="9.5" stroke="white"/>
<path d="M7.00073 8.5L10.0007 11.5L13.0007 8.5" stroke="white" stroke-linecap="round" stroke-linejoin="round"/>
</svg>
