<svg width="8" height="6" viewBox="0 0 8 6" fill="none" xmlns="http://www.w3.org/2000/svg">
<path d="M7.8515 0.898388C7.75261 0.799415 7.63538 0.749969 7.49994 0.749969L0.500038 0.749969C0.364534 0.749969 0.247392 0.799415 0.148419 0.898388C0.0494455 0.997471 0 1.11461 0 1.25003C0 1.38543 0.0494455 1.50257 0.148419 1.60157L3.64838 5.10153C3.74746 5.2005 3.86461 5.25006 4 5.25006C4.13539 5.25006 4.25265 5.2005 4.35154 5.10153L7.8515 1.60154C7.95036 1.50257 8 1.38543 8 1.25001C8 1.11461 7.95036 0.997471 7.8515 0.898388Z" fill="white"/>
</svg>
