<svg width="8" height="6" viewBox="0 0 8 6" fill="none" xmlns="http://www.w3.org/2000/svg">
<path d="M0.148501 5.10161C0.247392 5.20058 0.364616 5.25003 0.500065 5.25003L7.49996 5.25003C7.63547 5.25003 7.75261 5.20058 7.85158 5.10161C7.95055 5.00253 8 4.88539 8 4.74997C8 4.61457 7.95055 4.49743 7.85158 4.39843L4.35162 0.89847C4.25254 0.799497 4.13539 0.749941 4 0.749941C3.86461 0.749941 3.74735 0.799497 3.64846 0.89847L0.148501 4.39846C0.0496369 4.49743 5.55535e-08 4.61457 4.37146e-08 4.74999C3.18781e-08 4.88539 0.0496369 5.00253 0.148501 5.10161Z" fill="white"/>
</svg>
