<svg width="17" height="16" viewBox="0 0 17 16" fill="none" xmlns="http://www.w3.org/2000/svg">
<g clip-path="url(#clip0)">
<path d="M14.127 1.25003H13.377V3.05176e-05H12.127V1.25003H3.87695V3.05176e-05H2.62695V1.25003H1.87695C0.843078 1.25003 0.00195312 2.09116 0.00195312 3.12503V14.125C0.00195312 15.1589 0.843078 16 1.87695 16H14.127C15.1608 16 16.002 15.1589 16.002 14.125V3.12503C16.002 2.09116 15.1608 1.25003 14.127 1.25003ZM14.752 14.125C14.752 14.4697 14.4716 14.75 14.127 14.75H1.87695C1.53233 14.75 1.25195 14.4697 1.25195 14.125V5.87503H14.752V14.125ZM14.752 4.62503H1.25195V3.12503C1.25195 2.78041 1.53233 2.50003 1.87695 2.50003H2.62695V3.75003H3.87695V2.50003H12.127V3.75003H13.377V2.50003H14.127C14.4716 2.50003 14.752 2.78041 14.752 3.12503V4.62503Z" fill="#FF9900"/>
<path d="M3.62695 7.18753H2.37695V8.43753H3.62695V7.18753Z" fill="#FF9900"/>
<path d="M6.12695 7.18753H4.87695V8.43753H6.12695V7.18753Z" fill="#FF9900"/>
<path d="M8.62695 7.18753H7.37695V8.43753H8.62695V7.18753Z" fill="#FF9900"/>
<path d="M11.127 7.18753H9.87695V8.43753H11.127V7.18753Z" fill="#FF9900"/>
<path d="M13.627 7.18753H12.377V8.43753H13.627V7.18753Z" fill="#FF9900"/>
<path d="M3.62695 9.68753H2.37695V10.9375H3.62695V9.68753Z" fill="#FF9900"/>
<path d="M6.12695 9.68753H4.87695V10.9375H6.12695V9.68753Z" fill="#FF9900"/>
<path d="M8.62695 9.68753H7.37695V10.9375H8.62695V9.68753Z" fill="#FF9900"/>
<path d="M11.127 9.68753H9.87695V10.9375H11.127V9.68753Z" fill="#FF9900"/>
<path d="M3.62695 12.1875H2.37695V13.4375H3.62695V12.1875Z" fill="#FF9900"/>
<path d="M6.12695 12.1875H4.87695V13.4375H6.12695V12.1875Z" fill="#FF9900"/>
<path d="M8.62695 12.1875H7.37695V13.4375H8.62695V12.1875Z" fill="#FF9900"/>
<path d="M11.127 12.1875H9.87695V13.4375H11.127V12.1875Z" fill="#FF9900"/>
<path d="M13.627 9.68753H12.377V10.9375H13.627V9.68753Z" fill="#FF9900"/>
</g>
<defs>
<clipPath id="clip0">
<rect width="16" height="16" fill="white" transform="translate(0.00195312)"/>
</clipPath>
</defs>
</svg>
