<svg width="18" height="18" viewBox="0 0 18 18" fill="none" xmlns="http://www.w3.org/2000/svg">
<rect x="3.48486" y="13.384" width="14" height="1.6" rx="0.8" transform="rotate(-45 3.48486 13.384)" fill="white"/>
<rect x="4.61621" y="3.48364" width="14" height="1.6" rx="0.8" transform="rotate(45 4.61621 3.48364)" fill="white"/>
</svg>
