<svg width="17" height="16" viewBox="0 0 17 16" fill="none" xmlns="http://www.w3.org/2000/svg">
<g clip-path="url(#clip0)">
<path d="M8.5 5.76132C8.5 6.8212 7.604 7.68136 6.5 7.68136C6.5 8.7412 7.396 9.60136 8.5 9.60136C9.604 9.60136 10.5 8.7412 10.5 7.68136C10.5 6.62152 9.604 5.76132 8.5 5.76132ZM8.5 1.92133C4.398 1.92133 0.5 6.3834 0.5 7.68136C0.5 8.97928 4.398 13.4414 8.5 13.4414C12.602 13.4414 16.5 8.97928 16.5 7.68136C16.5 6.3834 12.602 1.92133 8.5 1.92133ZM8.5 11.5214C6.291 11.5214 4.5 9.802 4.5 7.68136C4.5 5.56068 6.291 3.84133 8.5 3.84133C10.709 3.84133 12.5 5.56068 12.5 7.68136C12.5 9.802 10.709 11.5214 8.5 11.5214Z" fill="#FF9900"/>
</g>
<defs>
<clipPath id="clip0">
<rect width="16" height="16" fill="white" transform="translate(0.5)"/>
</clipPath>
</defs>
</svg>
