<svg width="14" height="14" viewBox="0 0 14 14" fill="none" xmlns="http://www.w3.org/2000/svg">
<g clip-path="url(#clip0)">
<path d="M7.00124 2.54466C7.70415 2.54466 8.27397 1.97484 8.27397 1.27193C8.27397 0.569026 7.70415 -0.000793457 7.00124 -0.000793457C6.29834 -0.000793457 5.72852 0.569026 5.72852 1.27193C5.72852 1.97484 6.29834 2.54466 7.00124 2.54466Z" fill="#5C5C5C"/>
<path d="M7.00124 8.27202C7.70415 8.27202 8.27397 7.7022 8.27397 6.99929C8.27397 6.29638 7.70415 5.72656 7.00124 5.72656C6.29834 5.72656 5.72852 6.29638 5.72852 6.99929C5.72852 7.7022 6.29834 8.27202 7.00124 8.27202Z" fill="#5C5C5C"/>
<path d="M6.99929 13.9991C7.7022 13.9991 8.27202 13.4293 8.27202 12.7264C8.27202 12.0235 7.7022 11.4536 6.99929 11.4536C6.29638 11.4536 5.72656 12.0235 5.72656 12.7264C5.72656 13.4293 6.29638 13.9991 6.99929 13.9991Z" fill="#5C5C5C"/>
</g>
<defs>
<clipPath id="clip0">
<rect width="14" height="14" fill="white" transform="translate(0 -0.000793457)"/>
</clipPath>
</defs>
</svg>
