<svg width="20" height="18" viewBox="0 0 20 18" fill="none" xmlns="http://www.w3.org/2000/svg">
<path d="M2.91114 17.8049H1.49401L2.4961 16.8028C3.03641 16.2625 3.37382 15.5597 3.46453 14.7973C2.05459 13.8721 1.02358 12.6548 0.471684 11.2587C-0.079823 9.86372 -0.149128 8.32808 0.271282 6.81777C0.775712 5.00554 1.95883 3.35375 3.60263 2.16664C5.38892 0.876685 7.61264 0.194824 10.0334 0.194824C13.083 0.194824 15.6534 1.07098 17.4667 2.72852C19.1003 4.22181 20 6.23605 20 8.40024C20 9.45168 19.7859 10.4747 19.3637 11.441C18.9268 12.4409 18.287 13.3313 17.4621 14.0872C15.6463 15.7513 13.0775 16.6309 10.0334 16.6309C8.90333 16.6309 7.72413 16.48 6.67132 16.2032C5.67479 17.2255 4.32441 17.8049 2.91114 17.8049ZM10.0334 1.36883C5.17936 1.36883 2.20087 4.26364 1.40228 7.13259C0.647628 9.84376 1.76007 12.4056 4.3781 13.9854L4.67062 14.162L4.66162 14.5035C4.64378 15.1795 4.48263 15.8306 4.19417 16.4192C4.89658 16.1815 5.53395 15.7506 6.03305 15.161L6.28124 14.8677L6.64929 14.9778C7.68214 15.2867 8.88396 15.4569 10.0334 15.4569C16.0745 15.4569 18.826 11.7989 18.826 8.40024C18.826 6.56974 18.062 4.86321 16.6746 3.59505C15.0814 2.13866 12.7849 1.36883 10.0334 1.36883Z" fill="#FF9900"/>
</svg>
