<svg width="20" height="20" viewBox="0 0 20 20" fill="none" xmlns="http://www.w3.org/2000/svg">
<g clip-path="url(#clip0)">
<path d="M19.928 15.6961L18.7664 12.3155C19.3263 11.1709 19.6222 9.89793 19.6242 8.61711C19.6277 6.39003 18.766 4.28428 17.198 2.6878C15.6296 1.091 13.5397 0.192128 11.3131 0.156854C9.00432 0.12037 6.83416 0.998575 5.20263 2.63006C3.62943 4.20323 2.75685 6.27718 2.72923 8.49343C1.17868 9.66086 0.263482 11.481 0.26649 13.4251C0.267935 14.3349 0.472701 15.2392 0.86071 16.057L0.060591 18.3854C-0.0769483 18.7857 0.0235207 19.2203 0.322818 19.5196C0.533444 19.7303 0.811139 19.8424 1.09673 19.8424C1.21688 19.8424 1.33845 19.8226 1.457 19.7818L3.78548 18.9817C4.60326 19.3697 5.50759 19.5745 6.41736 19.5759C6.42064 19.5759 6.42377 19.5759 6.42705 19.5759C8.4001 19.5758 10.2341 18.637 11.3973 17.0485C12.6077 17.0166 13.8053 16.7236 14.888 16.194L18.2686 17.3556C18.4095 17.404 18.5539 17.4276 18.6967 17.4276C19.0361 17.4276 19.3661 17.2943 19.6164 17.0439C19.9721 16.6883 20.0915 16.1718 19.928 15.6961ZM6.42697 18.3854C6.42443 18.3854 6.42174 18.3854 6.4192 18.3854C5.61396 18.3842 4.81431 18.1857 4.10685 17.8114C3.96138 17.7345 3.7906 17.7212 3.63505 17.7746L1.24743 18.5951L2.06786 16.2075C2.1213 16.0519 2.10802 15.8811 2.03106 15.7357C1.65677 15.0282 1.45825 14.2286 1.457 13.4233C1.45501 12.128 1.95888 10.9003 2.84001 9.98101C3.12782 11.7355 3.96404 13.3524 5.26021 14.6255C6.54681 15.8892 8.16408 16.6938 9.90909 16.9569C8.98768 17.865 7.74565 18.3854 6.42697 18.3854ZM18.7746 16.2021C18.7407 16.236 18.7006 16.2452 18.6554 16.2297L15.0363 14.9861C14.9735 14.9645 14.9081 14.9538 14.8429 14.9538C14.7469 14.9538 14.6512 14.977 14.5646 15.0229C13.5312 15.5695 12.3636 15.8594 11.1877 15.8612C11.1839 15.8612 11.1803 15.8612 11.1765 15.8612C7.2365 15.8612 3.98208 12.6607 3.91966 8.72164C3.88822 6.73784 4.64283 4.87343 6.04443 3.47182C7.44604 2.07022 9.31077 1.31588 11.2943 1.34713C15.2371 1.40967 18.4398 4.67011 18.4338 8.61523C18.4319 9.79109 18.142 10.9588 17.5954 11.992C17.5185 12.1375 17.5052 12.3082 17.5586 12.4638L18.8022 16.0829C18.8177 16.1282 18.8084 16.1683 18.7746 16.2021Z" fill="#FF9900"/>
<path d="M14.7226 5.44971H7.63039C7.30164 5.44971 7.03516 5.71623 7.03516 6.04494C7.03516 6.37369 7.30168 6.64018 7.63039 6.64018H14.7226C15.0513 6.64018 15.3178 6.37365 15.3178 6.04494C15.3178 5.71623 15.0513 5.44971 14.7226 5.44971Z" fill="#FF9900"/>
<path d="M14.7226 7.89697H7.63039C7.30164 7.89697 7.03516 8.1635 7.03516 8.49221C7.03516 8.82092 7.30168 9.08744 7.63039 9.08744H14.7226C15.0513 9.08744 15.3178 8.82092 15.3178 8.49221C15.3178 8.1635 15.0513 7.89697 14.7226 7.89697Z" fill="#FF9900"/>
<path d="M11.9926 10.3462H7.63039C7.30164 10.3462 7.03516 10.6127 7.03516 10.9414C7.03516 11.2702 7.30168 11.5367 7.63039 11.5367H11.9926C12.3214 11.5367 12.5878 11.2701 12.5878 10.9414C12.5878 10.6127 12.3214 10.3462 11.9926 10.3462Z" fill="#FF9900"/>
</g>
<defs>
<clipPath id="clip0">
<rect width="20" height="20" fill="white"/>
</clipPath>
</defs>
</svg>
