<svg width="15" height="16" viewBox="0 0 15 16" fill="none" xmlns="http://www.w3.org/2000/svg">
<path d="M10.4714 11.2764L14.2857 15.2727" stroke="#FF9900" stroke-width="1.4" stroke-miterlimit="10" stroke-linecap="round"/>
<path d="M6.53221 12.4364C9.74533 12.4364 12.3501 9.81519 12.3501 6.58182C12.3501 3.34844 9.74533 0.727272 6.53221 0.727272C3.3191 0.727272 0.714355 3.34844 0.714355 6.58182C0.714355 9.81519 3.3191 12.4364 6.53221 12.4364Z" stroke="#FF9900" stroke-width="1.4" stroke-miterlimit="10" stroke-linecap="round"/>
</svg>
