<svg width="12" height="12" viewBox="0 0 12 12" fill="none" xmlns="http://www.w3.org/2000/svg">
<path d="M2.78735 7.68107L2.15386 11.5646C2.13086 11.7061 2.19035 11.8486 2.30785 11.9316C2.42485 12.0141 2.57936 12.0231 2.70535 11.9531L6.00036 10.1321L9.29536 11.9536C9.35236 11.9846 9.41486 12.0001 9.47686 12.0001C9.55286 12.0001 9.62836 11.9771 9.69286 11.9316C9.81036 11.8486 9.86986 11.7061 9.84686 11.5646L9.21336 7.68107L11.8934 4.93407C11.9914 4.83357 12.0254 4.68607 11.9809 4.55307C11.9364 4.41957 11.8209 4.32307 11.6819 4.30157L7.99286 3.73807L6.33936 0.216079C6.21586 -0.0469206 5.78436 -0.0469206 5.66086 0.216079L4.00786 3.73807L0.318855 4.30157C0.179855 4.32307 0.0643547 4.41957 0.0198547 4.55307C-0.0246453 4.68657 0.00885472 4.83357 0.106855 4.93407L2.78735 7.68107ZM4.31886 4.44907C4.44236 4.43007 4.54836 4.35107 4.60136 4.23807L6.00036 1.25758L7.39936 4.23757C7.45236 4.35057 7.55836 4.43007 7.68186 4.44857L10.8474 4.93207L8.54486 7.29207C8.46136 7.37707 8.42386 7.49707 8.44286 7.61457L8.98286 10.9231L6.18186 9.37507C6.12536 9.34407 6.06286 9.32807 6.00036 9.32807C5.93786 9.32807 5.87536 9.34357 5.81886 9.37507L3.01786 10.9231L3.55786 7.61457C3.57686 7.49707 3.53936 7.37757 3.45586 7.29207L1.15335 4.93207L4.31886 4.44907Z" fill="white"/>
</svg>
