<svg width="20" height="20" viewBox="0 0 20 20" fill="none" xmlns="http://www.w3.org/2000/svg">
<circle cx="10" cy="10.0001" r="10" fill="#2D9CDB"/>
<g clip-path="url(#clip0)">
<path d="M8.92382 11.3256L8.75841 13.6522C8.99507 13.6522 9.09757 13.5506 9.22049 13.4285L10.3301 12.3681L12.6292 14.0518C13.0509 14.2868 13.348 14.1631 13.4617 13.6639L14.9709 6.59223L14.9713 6.59182C15.1051 5.96848 14.7459 5.72473 14.3351 5.87765L5.46424 9.2739C4.85882 9.5089 4.86799 9.8464 5.36132 9.99932L7.62924 10.7047L12.8972 7.40848C13.1451 7.24432 13.3705 7.33515 13.1851 7.49932L8.92382 11.3256Z" fill="white"/>
</g>
<defs>
<clipPath id="clip0">
<rect width="10" height="10" fill="white" transform="translate(5 5.00006)"/>
</clipPath>
</defs>
</svg>
