<svg width="17" height="16" viewBox="0 0 17 16" fill="none" xmlns="http://www.w3.org/2000/svg">
<g clip-path="url(#clip0)">
<path d="M8.5 16C6.60578 16 4.76856 15.3261 3.32678 14.1025C2.98825 13.8153 2.67069 13.497 2.383 13.1564C1.16866 11.717 0.5 9.88584 0.5 8C0.5 5.86309 1.33213 3.85413 2.84313 2.34313C4.35413 0.832125 6.36309 0 8.5 0C10.6369 0 12.6459 0.832125 14.1569 2.34313C15.6679 3.85413 16.5 5.86309 16.5 8C16.5 9.88587 15.8313 11.717 14.6172 13.1562C14.3293 13.497 14.0118 13.8153 13.6731 14.1026C12.2314 15.3261 10.3942 16 8.5 16ZM8.5 1C4.64019 1 1.5 4.14019 1.5 8C1.5 9.65016 2.08497 11.2523 3.14716 12.5113C3.39903 12.8096 3.67719 13.0884 3.97375 13.34C5.23513 14.4105 6.84253 15 8.5 15C10.1575 15 11.7649 14.4105 13.0262 13.34C13.3228 13.0884 13.601 12.8095 13.853 12.5111C14.915 11.2523 15.5 9.65019 15.5 8C15.5 4.14019 12.3598 1 8.5 1Z" fill="#FF9900"/>
<path d="M8.5 8C6.84578 8 5.5 6.65422 5.5 5C5.5 3.34578 6.84578 2 8.5 2C10.1542 2 11.5 3.34578 11.5 5C11.5 6.65422 10.1542 8 8.5 8ZM8.5 3C7.39719 3 6.5 3.89719 6.5 5C6.5 6.10281 7.39719 7 8.5 7C9.60281 7 10.5 6.10281 10.5 5C10.5 3.89719 9.60281 3 8.5 3Z" fill="#FF9900"/>
<path d="M13.3501 14.2214C13.3097 14.2214 13.2688 14.2165 13.2279 14.2062C12.9601 14.139 12.7975 13.8674 12.8647 13.5995C12.9545 13.2419 13 12.872 13 12.5C13 10.0536 11.0111 8.03544 8.56584 8.00031L8.5 8L8.43416 8.00031C5.98894 8.03544 4 10.0536 4 12.5C4 12.872 4.04553 13.2419 4.13528 13.5995C4.2025 13.8674 4.03988 14.139 3.77206 14.2062C3.50425 14.2734 3.23259 14.1108 3.16537 13.843C3.05562 13.4058 3 12.954 3 12.5C3 11.0444 3.56303 9.67241 4.58537 8.63656C5.60672 7.60175 6.96928 7.02069 8.42206 7.00037C8.42441 7.00034 8.42672 7.00034 8.42906 7.00034L8.5 7L8.57094 7.00031C8.57328 7.00031 8.57559 7.00031 8.57794 7.00034C10.0307 7.02063 11.3933 7.60172 12.4146 8.63653C13.437 9.67241 14 11.0444 14 12.5C14 12.954 13.9444 13.4058 13.8346 13.843C13.7777 14.0699 13.5739 14.2213 13.3501 14.2214Z" fill="#FF9900"/>
</g>
<defs>
<clipPath id="clip0">
<rect width="16" height="16" fill="white" transform="translate(0.5)"/>
</clipPath>
</defs>
</svg>
